Summarizing Data with Numbers
…
<img src="img/data-wrangle.003.jpeg" width="80%" style="display: block; margin: auto;" />

`group_by()` separates the data frame by the groups. Any action following `group_by()` will be completed for each group separately.

---

Notice that the output indicates `Groups:   restaurant [8]`

```r
fastfood %>% 
  group_by(restaurant)
```

```
## # A tibble: 515 × 17
## # Groups:   restaurant [8]
##    restaurant item      calories cal_fat total_fat sat_fat trans_fat cholesterol sodium total_carb
##    <fct>      <chr>        <dbl>   <dbl>     <dbl>   <dbl>     <dbl>       <dbl>  <dbl>      <dbl>
##  1 Mcdonalds  Artisan …      380      60         7       2       0            95   1110         44
##  2 Mcdonalds  Single B…      840     410        45      17       1.5         130   1580         62
##  3 Mcdonalds  Double B…     1130     600        67      27       3           220   1920         63
##  4 Mcdonalds  Grilled …      750     280        31      10       0.5         155   1940         62
##  5 Mcdonalds  Crispy B…      920     410        45      12       0.5         120   1980         81
##  6 Mcdonalds  Big Mac        540     250        28      10       1            80    950         46
##  7 Mcdonalds  Cheesebu…      300     100        12       5       0.5          40    680         33
##  8 Mcdonalds  Classic …      510     210        24       4       0            65   1040         49
##  9 Mcdonalds  Double C…      430     190        21      11       1            85   1040         35
## 10 Mcdonalds  Double Q…      770     400        45      21       2.5         175   1290         42
## # … with 505 more rows, and 7 more variables: fiber <dbl>, sugar <dbl>, protein <dbl>,
## #   vit_a <dbl>, vit_c <dbl>, calcium <dbl>, salad <chr>
```
…
